{
  "swagger": "2.0",
  "info": {
    "description": "Ini adalah dokumentasi API game Rock, Scissors, Paper ",
    "version": "1.0.0",
    "title": "CHALLENGE CHAPTER 9",
    "termsOfService": "http://swagger.io/terms/",
    "contact": {
      "email": "apiteam@swagger.io"
    },
    "license": {
      "name": "Apache 2.0",
      "url": "http://www.apache.org/licenses/LICENSE-2.0.html"
    }
  },
  "host": "fsw7-challenge9.herokuapp.com",
  "basePath": "/api",
  "tags": [
    {
      "name": "auth",
      "description": "Authentication for user"
    },
    {
      "name": "user",
      "description": "User profile"
    },
    {
      "name": "game",
      "description": "Game access"
    }
  ],
  "schemes": [
    "https"
  ],
  "paths": {
    "/register": {
      "post": {
        "tags": [
          "auth"
        ],
        "summary": "Register user",
        "description": "",
        "operationId": "registerUser",
        "consumes": [
          "application/json"
        ],
        "produces": [
          "application/json"
        ],
        "parameters": [
          {
            "in": "body",
            "name": "body",
            "description": "",
            "required": true,
            "schema": {
              "$ref": "#/definitions/UserAuth"
            }
          }
        ],
        "responses": {
          "200": {
            "description": "sukses"
          },
          "201": {
            "description": "data berhasil disimpan"
          },
          "400": {
            "description": "not found"
          }
        }
      }
    },
    "/login": {
      "post": {
        "tags": [
          "auth"
        ],
        "summary": "Login user",
        "description": "",
        "operationId": "loginUser",
        "consumes": [
          "application/json"
        ],
        "produces": [
          "application/json"
        ],
        "parameters": [
          {
            "in": "body",
            "name": "body",
            "description": "",
            "required": true,
            "schema": {
              "$ref": "#/definitions/UserAuth"
            }
          }
        ],
        "responses": {
          "200": {
            "description": "sukses"
          },
          "400": {
            "description": "not found"
          }
        }
      }
    },
    "/logout": {
      "post": {
        "tags": [
          "auth"
        ],
        "summary": "Logout user",
        "description": "",
        "operationId": "logoutUser",
        "consumes": [
          "application/json"
        ],
        "produces": [
          "application/json"
        ],
        "parameters": [
          {
            "in": "body",
            "name": "body",
            "description": "",
            "required": true,
            "schema": {
              "$ref": "#/definitions/UserAuth"
            }
          }
        ],
        "responses": {
          "200": {
            "description": "berhasil logout"
          }
        }
      }
    },
    "/user": {
      "get": {
        "tags": [
          "user"
        ],
        "summary": "Get all user",
        "description": "Get all user",
        "operationId": "getUser",
        "consumes": [
          "application/json"
        ],
        "produces": [
          "application/json"
        ],
        "responses": {
          "200": {
            "description": "sukses"
          },
          "400": {
            "description": "not found"
          }
        }
      }
    },
    "/user/{id}": {
      "get": {
        "tags": [
          "user"
        ],
        "summary": "Get detail user",
        "description": "Get detail user by id",
        "operationId": "getDetailUser",
        "consumes": [
          "application/json"
        ],
        "produces": [
          "application/json"
        ],
        "parameters": [
          {
            "in": "path",
            "name": "id",
            "description": "Body of Player by ID",
            "required": true,
            "type": "integer",
            "format": "int64"
          }
        ],
        "responses": {
          "200": {
            "description": "sukses"
          },
          "400": {
            "description": "not found"
          }
        }
      },
      "put": {
        "tags": [
          "user"
        ],
        "summary": "Edit user",
        "description": "Edit user by id",
        "operationId": "editUser",
        "consumes": [
          "application/json"
        ],
        "produces": [
          "application/json"
        ],
        "parameters": [
          {
            "in": "path",
            "name": "id",
            "description": "Body of Player by ID",
            "required": true,
            "type": "integer",
            "format": "int64"
          },
          {
            "in": "body",
            "name": "body",
            "description": "",
            "required": true,
            "schema": {
              "$ref": "#/definitions/User"
            }
          }
        ],
        "responses": {
          "201": {
            "description": "data berhasil disimpan"
          },
          "400": {
            "description": "not found"
          }
        }
      },
      "delete": {
        "tags": [
          "user"
        ],
        "summary": "Delete user",
        "description": "Delete user by id",
        "operationId": "deleteUser",
        "consumes": [
          "application/json"
        ],
        "produces": [
          "application/json"
        ],
        "parameters": [
          {
            "in": "path",
            "name": "id",
            "description": "Body of Player by ID",
            "required": true,
            "type": "integer",
            "format": "int64"
          }
        ],
        "responses": {
          "200": {
            "description": "sukses"
          }
        }
      }
    },
    "/game": {
      "get": {
        "tags": [
          "game"
        ],
        "summary": "Get all games",
        "description": "Get all games",
        "operationId": "getGame",
        "consumes": [
          "application/json"
        ],
        "produces": [
          "application/json"
        ],
        "responses": {
          "200": {
            "description": "sukses"
          },
          "400": {
            "description": "Games Not Found"
          }
        }
      }
    },
    "/game/{id}": {
      "get": {
        "tags": [
          "game"
        ],
        "summary": "Get detail games by id game",
        "description": "Get detail games",
        "operationId": "getDetailGame",
        "consumes": [
          "application/json"
        ],
        "produces": [
          "application/json"
        ],
        "parameters": [
          {
            "in": "path",
            "name": "id",
            "description": "Game ID",
            "required": true,
            "type": "integer",
            "format": "int64"
          }
        ],
        "responses": {
          "200": {
            "description": "sukses"
          },
          "400": {
            "description": "Detail Game not Found"
          }
        }
      }
    },
    "/score/{id}": {
      "post": {
        "tags": [
          "game"
        ],
        "summary": "Get updated game score by user id",
        "description": "Get updated game score by user id from FE",
        "operationId": "updateScore",
        "consumes": [
          "application/json"
        ],
        "produces": [
          "application/json"
        ],
        "parameters": [
          {
            "in": "path",
            "name": "id",
            "description": "Score Game by ID",
            "required": true,
            "type": "integer",
            "format": "int64"
          },
          {
            "in": "body",
            "name": "body",
            "description": "",
            "required": true,
            "schema": {
              "$ref": "#/definitions/TotalScore"
            }
          }
        ],
        "responses": {
          "201": {
            "description": "data berhasil disimpan"
          },
          "400": {
            "description": "not found"
          }
        }
      }
    },
    "/play/{id}": {
      "post": {
        "tags": [
          "game"
        ],
        "summary": "Get play count game by user id",
        "description": "",
        "operationId": "startGame",
        "consumes": [
          "application/json"
        ],
        "produces": [
          "application/json"
        ],
        "parameters": [
          {
            "in": "path",
            "name": "id",
            "description": "Play Count by ID",
            "required": true,
            "type": "integer",
            "format": "int64"
          },
          {
            "in": "body",
            "name": "body",
            "description": "",
            "required": true,
            "schema": {
              "$ref": "#/definitions/PlayCount"
            }
          }
        ],
        "responses": {
          "201": {
            "description": "data berhasil disimpan"
          },
          "400": {
            "description": "not found"
          }
        }
      }
    }
  },
  "definitions": {
    "UserAuth": {
      "type": "object",
      "required": [
        "username",
        "password"
      ],
      "properties": {
        "username": {
          "type": "string"
        },
        "password": {
          "type": "string"
        }
      }
    },
    "User": {
      "type": "object",
      "properties": {
        "email": {
          "type": "string"
        },
        "username": {
          "type": "string"
        },
        "password": {
          "type": "string"
        },
        "total_score": {
          "type": "integer"
        },
        "bio": {
          "type": "string"
        },
        "city": {
          "type": "string"
        },
        "social_media_url": {
          "type": "string"
        }
      }
    },
    "TotalScore": {
      "type": "object",
      "properties": {
        "total_score": {
          "type": "integer"
        }
      }
    },
    "PlayCount": {
      "type": "object",
      "properties": {
        "play_count": {
          "type": "integer"
        }
      }
    }
  }
}