{
  "development": {
    "username": "dhianalyusi",
    "password": "dhianalyusi2983901831jahdjhsdhianalyusi",
    "database": "challenge9_db",
    "host": "68.183.189.214",
    "dialect": "postgres",
    "port": 6432
  },
  "test": {
    "username": "dhianalyusi",
    "password": "dhianalyusi2983901831jahdjhsdhianalyusi",
    "database": "challenge9_db",
    "host": "68.183.189.214",
    "dialect": "postgres",
    "port": 6432
  },
  "production": {
   "username": "dhianalyusi",
    "password": "dhianalyusi2983901831jahdjhsdhianalyusi",
    "database": "challenge9_db",
    "host": "68.183.189.214",
    "dialect": "postgres",
    "port": 6432
  }
}
